animation{
  name = "waiting",
  src_image = "npc/mr_write.png",
  frame_delay = 250,
  frame_to_loop_on = 0,
  directions = {
    { x = 0, y = 0, frame_width = 32, frame_height = 32, origin_x = 16, origin_y = 32, num_frames = 6 },
    { x = 0, y = 0, frame_width = 32, frame_height = 32, origin_x = 16, origin_y = 32, num_frames = 6 },
    { x = 0, y = 0, frame_width = 32, frame_height = 32, origin_x = 16, origin_y = 32, num_frames = 6 },
    { x = 0, y = 0, frame_width = 32, frame_height = 32, origin_x = 16, origin_y = 32, num_frames = 6 },
  },
}
animation{
  name = "stopped",
  src_image = "npc/mr_write.png",
  directions = {
    { x = 32, y = 32, frame_width = 32, frame_height = 32, origin_x = 16, origin_y = 32 },
    { x = 0, y = 0, frame_width = 32, frame_height = 32, origin_x = 16, origin_y = 32 },
    { x = 0, y = 32, frame_width = 32, frame_height = 32, origin_x = 16, origin_y = 32 },
    { x = 0, y = 0, frame_width = 32, frame_height = 32, origin_x = 16, origin_y = 32 },
  },
}
