animation{
  name = "stopped",
  src_image = "npc/quadruplet_father.png",
  directions = {
    { x = 0, y = 64, frame_width = 24, frame_height = 32, origin_x = 12, origin_y = 29 },
    { x = 0, y = 96, frame_width = 24, frame_height = 32, origin_x = 12, origin_y = 29 },
    { x = 0, y = 32, frame_width = 24, frame_height = 32, origin_x = 12, origin_y = 29 },
    { x = 0, y = 0, frame_width = 24, frame_height = 32, origin_x = 12, origin_y = 29 },
  },
}
animation{
  name = "calling",
  src_image = "npc/quadruplet_father.png",
  frame_delay = 150,
  frame_to_loop_on = 0,
  directions = {
    { x = 0, y = 128, frame_width = 24, frame_height = 32, origin_x = 12, origin_y = 29, num_frames = 2 },
    { x = 0, y = 128, frame_width = 24, frame_height = 32, origin_x = 12, origin_y = 29, num_frames = 2 },
    { x = 48, y = 128, frame_width = 24, frame_height = 32, origin_x = 12, origin_y = 29, num_frames = 2 },
    { x = 48, y = 128, frame_width = 24, frame_height = 32, origin_x = 12, origin_y = 29, num_frames = 2 },
  },
}
animation{
  name = "eating",
  src_image = "npc/quadruplet_father.png",
  frame_delay = 150,
  frame_to_loop_on = 0,
  directions = {
    { x = 96, y = 0, frame_width = 24, frame_height = 32, origin_x = 12, origin_y = 29, num_frames = 6 },
    { x = 96, y = 0, frame_width = 24, frame_height = 32, origin_x = 12, origin_y = 29, num_frames = 6 },
    { x = 96, y = 0, frame_width = 24, frame_height = 32, origin_x = 12, origin_y = 29, num_frames = 6 },
    { x = 96, y = 0, frame_width = 24, frame_height = 32, origin_x = 12, origin_y = 29, num_frames = 6 },
  },
}
animation{
  name = "sitting",
  src_image = "npc/quadruplet_father.png",
  frame_delay = 150,
  frame_to_loop_on = 0,
  directions = {
    { x = 120, y = 32, frame_width = 24, frame_height = 32, origin_x = 12, origin_y = 29 },
    { x = 168, y = 32, frame_width = 24, frame_height = 32, origin_x = 12, origin_y = 29 },
    { x = 96, y = 32, frame_width = 24, frame_height = 32, origin_x = 12, origin_y = 29 },
    { x = 144, y = 32, frame_width = 24, frame_height = 32, origin_x = 12, origin_y = 29 },
  },
}
animation{
  name = "walking",
  src_image = "npc/quadruplet_father.png",
  frame_delay = 250,
  frame_to_loop_on = 0,
  directions = {
    { x = 0, y = 64, frame_width = 24, frame_height = 32, origin_x = 12, origin_y = 29, num_frames = 4 },
    { x = 0, y = 96, frame_width = 24, frame_height = 32, origin_x = 12, origin_y = 29, num_frames = 4 },
    { x = 0, y = 32, frame_width = 24, frame_height = 32, origin_x = 12, origin_y = 29, num_frames = 4 },
    { x = 0, y = 0, frame_width = 24, frame_height = 32, origin_x = 12, origin_y = 29, num_frames = 4 },
  },
}
