animation{
  name = "default",
  src_image = "entities/dog_statue.png",
  directions = {
    { x = 0, y = 0, frame_width = 32, frame_height = 32, origin_x = 8, origin_y = 13 },
    { x = 64, y = 0, frame_width = 32, frame_height = 32, origin_x = 8, origin_y = 13 },
    { x = 96, y = 0, frame_width = 32, frame_height = 32, origin_x = 8, origin_y = 13 },
    { x = 32, y = 0, frame_width = 32, frame_height = 32, origin_x = 8, origin_y = 13 },
  },
}
