animation{
  name = "default",
  src_image = "entities/orb_monster_hole.png",
  directions = {
    { x = 0, y = 64, frame_width = 32, frame_height = 32, origin_x = 16, origin_y = 21 },
  },
}
animation{
  name = "full",
  src_image = "entities/orb_monster_hole.png",
  directions = {
    { x = 32, y = 64, frame_width = 32, frame_height = 32, origin_x = 16, origin_y = 21 },
  },
}
