properties{
  x = 0,
  y = 0,
  width = 320,
  height = 256,
  min_layer = 0,
  max_layer = 2,
  world = "inside_world",
  tileset = "dungeon/dark_brown",
  music = "maps/caves/cave",
}

tile{
  layer = 0,
  x = 48,
  y = 64,
  width = 224,
  height = 144,
  pattern = "floor.5-2",
}

tile{
  layer = 0,
  x = 112,
  y = 96,
  width = 96,
  height = 8,
  pattern = "water_shallow.1",
}

tile{
  layer = 0,
  x = 40,
  y = 160,
  width = 24,
  height = 24,
  pattern = "wall_low.corner.3-2",
}

tile{
  layer = 0,
  x = 56,
  y = 176,
  width = 24,
  height = 24,
  pattern = "wall_low.corner.3-2",
}

tile{
  layer = 0,
  x = 72,
  y = 192,
  width = 24,
  height = 24,
  pattern = "wall_low.corner.3-2",
}

tile{
  layer = 0,
  x = 96,
  y = 192,
  width = 128,
  height = 24,
  pattern = "wall_low.2-2",
}

tile{
  layer = 0,
  x = 40,
  y = 96,
  width = 24,
  height = 64,
  pattern = "wall_low.3-2",
}

tile{
  layer = 0,
  x = 40,
  y = 72,
  width = 24,
  height = 24,
  pattern = "wall_low.corner.1-2",
}

tile{
  layer = 0,
  x = 56,
  y = 56,
  width = 24,
  height = 24,
  pattern = "wall_low.corner.1-2",
}

tile{
  layer = 0,
  x = 72,
  y = 40,
  width = 24,
  height = 24,
  pattern = "wall_low.corner.1-2",
}

tile{
  layer = 0,
  x = 224,
  y = 40,
  width = 24,
  height = 24,
  pattern = "wall_low.corner.2-2",
}

tile{
  layer = 0,
  x = 240,
  y = 56,
  width = 24,
  height = 24,
  pattern = "wall_low.corner.2-2",
}

tile{
  layer = 0,
  x = 256,
  y = 72,
  width = 24,
  height = 24,
  pattern = "wall_low.corner.2-2",
}

tile{
  layer = 0,
  x = 224,
  y = 192,
  width = 24,
  height = 24,
  pattern = "wall_low.corner.4-2",
}

tile{
  layer = 0,
  x = 240,
  y = 176,
  width = 24,
  height = 24,
  pattern = "wall_low.corner.4-2",
}

tile{
  layer = 0,
  x = 256,
  y = 160,
  width = 24,
  height = 24,
  pattern = "wall_low.corner.4-2",
}

tile{
  layer = 0,
  x = 256,
  y = 96,
  width = 24,
  height = 64,
  pattern = "wall_low.4-2",
}

tile{
  layer = 0,
  x = 224,
  y = 56,
  width = 24,
  height = 24,
  pattern = "wall_low.corner_reverse.2-2",
}

tile{
  layer = 0,
  x = 240,
  y = 72,
  width = 24,
  height = 24,
  pattern = "wall_low.corner_reverse.2-2",
}

tile{
  layer = 0,
  x = 64,
  y = 104,
  width = 8,
  height = 48,
  pattern = "wall_low_border.3-3",
}

tile{
  layer = 0,
  x = 248,
  y = 104,
  width = 8,
  height = 48,
  pattern = "wall_low_border.4-3",
}

tile{
  layer = 0,
  x = 80,
  y = 80,
  width = 8,
  height = 16,
  pattern = "wall_low_border.3-3",
}

tile{
  layer = 0,
  x = 96,
  y = 64,
  width = 8,
  height = 16,
  pattern = "wall_low_border.3-3",
}

tile{
  layer = 0,
  x = 80,
  y = 160,
  width = 8,
  height = 16,
  pattern = "wall_low_border.3-3",
}

tile{
  layer = 0,
  x = 96,
  y = 176,
  width = 8,
  height = 16,
  pattern = "wall_low_border.3-3",
}

tile{
  layer = 0,
  x = 216,
  y = 176,
  width = 8,
  height = 16,
  pattern = "wall_low_border.4-3",
}

tile{
  layer = 0,
  x = 232,
  y = 160,
  width = 8,
  height = 16,
  pattern = "wall_low_border.4-3",
}

tile{
  layer = 0,
  x = 216,
  y = 64,
  width = 8,
  height = 16,
  pattern = "wall_low_border.4-3",
}

tile{
  layer = 0,
  x = 232,
  y = 80,
  width = 8,
  height = 16,
  pattern = "wall_low_border.4-3",
}

tile{
  layer = 0,
  x = 64,
  y = 96,
  width = 16,
  height = 8,
  pattern = "wall_low_border.1-3",
}

tile{
  layer = 0,
  x = 80,
  y = 80,
  width = 16,
  height = 8,
  pattern = "wall_low_border.1-3",
}

tile{
  layer = 0,
  x = 240,
  y = 96,
  width = 16,
  height = 8,
  pattern = "wall_low_border.1-3",
}

tile{
  layer = 0,
  x = 224,
  y = 80,
  width = 16,
  height = 8,
  pattern = "wall_low_border.1-3",
}

tile{
  layer = 0,
  x = 104,
  y = 64,
  width = 112,
  height = 8,
  pattern = "wall_low_border.1-3",
}

tile{
  layer = 0,
  x = 64,
  y = 152,
  width = 16,
  height = 8,
  pattern = "wall_low_border.2-3",
}

tile{
  layer = 0,
  x = 80,
  y = 168,
  width = 16,
  height = 8,
  pattern = "wall_low_border.2-3",
}

tile{
  layer = 0,
  x = 240,
  y = 152,
  width = 16,
  height = 8,
  pattern = "wall_low_border.2-3",
}

tile{
  layer = 0,
  x = 224,
  y = 168,
  width = 16,
  height = 8,
  pattern = "wall_low_border.2-3",
}

tile{
  layer = 0,
  x = 104,
  y = 184,
  width = 112,
  height = 8,
  pattern = "wall_low_border.2-3",
}

tile{
  layer = 0,
  x = 80,
  y = 96,
  width = 8,
  height = 8,
  pattern = "wall_low_border.corner_reverse.1-3",
}

tile{
  layer = 0,
  x = 96,
  y = 80,
  width = 8,
  height = 8,
  pattern = "wall_low_border.corner_reverse.1-3",
}

tile{
  layer = 0,
  x = 216,
  y = 80,
  width = 8,
  height = 8,
  pattern = "wall_low_border.corner_reverse.2-3",
}

tile{
  layer = 0,
  x = 232,
  y = 96,
  width = 8,
  height = 8,
  pattern = "wall_low_border.corner_reverse.2-3",
}

tile{
  layer = 0,
  x = 232,
  y = 152,
  width = 8,
  height = 8,
  pattern = "wall_low_border.corner_reverse.4-3",
}

tile{
  layer = 0,
  x = 216,
  y = 168,
  width = 8,
  height = 8,
  pattern = "wall_low_border.corner_reverse.4-3",
}

tile{
  layer = 0,
  x = 96,
  y = 168,
  width = 8,
  height = 8,
  pattern = "wall_low_border.corner_reverse.3-3",
}

tile{
  layer = 0,
  x = 80,
  y = 152,
  width = 8,
  height = 8,
  pattern = "wall_low_border.corner_reverse.3-3",
}

tile{
  layer = 0,
  x = 64,
  y = 152,
  width = 8,
  height = 8,
  pattern = "wall_low_border.corner.3-3",
}

tile{
  layer = 0,
  x = 80,
  y = 168,
  width = 8,
  height = 8,
  pattern = "wall_low_border.corner.3-3",
}

tile{
  layer = 0,
  x = 96,
  y = 184,
  width = 8,
  height = 8,
  pattern = "wall_low_border.corner.3-3",
}

tile{
  layer = 0,
  x = 216,
  y = 184,
  width = 8,
  height = 8,
  pattern = "wall_low_border.corner.4-3",
}

tile{
  layer = 0,
  x = 232,
  y = 168,
  width = 8,
  height = 8,
  pattern = "wall_low_border.corner.4-3",
}

tile{
  layer = 0,
  x = 248,
  y = 152,
  width = 8,
  height = 8,
  pattern = "wall_low_border.corner.4-3",
}

tile{
  layer = 0,
  x = 248,
  y = 96,
  width = 8,
  height = 8,
  pattern = "wall_low_border.corner.2-3",
}

tile{
  layer = 0,
  x = 232,
  y = 80,
  width = 8,
  height = 8,
  pattern = "wall_low_border.corner.2-3",
}

tile{
  layer = 0,
  x = 216,
  y = 64,
  width = 8,
  height = 8,
  pattern = "wall_low_border.corner.2-3",
}

tile{
  layer = 0,
  x = 96,
  y = 64,
  width = 8,
  height = 8,
  pattern = "wall_low_border.corner.1-3",
}

tile{
  layer = 0,
  x = 80,
  y = 80,
  width = 8,
  height = 8,
  pattern = "wall_low_border.corner.1-3",
}

tile{
  layer = 0,
  x = 64,
  y = 96,
  width = 8,
  height = 8,
  pattern = "wall_low_border.corner.1-3",
}

tile{
  layer = 0,
  x = 96,
  y = 40,
  width = 128,
  height = 24,
  pattern = "wall_low.1-2",
}

tile{
  layer = 0,
  x = 72,
  y = 56,
  width = 24,
  height = 24,
  pattern = "wall_low.corner_reverse.1-2",
}

tile{
  layer = 0,
  x = 56,
  y = 72,
  width = 24,
  height = 24,
  pattern = "wall_low.corner_reverse.1-2",
}

tile{
  layer = 0,
  x = 56,
  y = 160,
  width = 24,
  height = 24,
  pattern = "wall_low.corner_reverse.3-2",
}

tile{
  layer = 0,
  x = 72,
  y = 176,
  width = 24,
  height = 24,
  pattern = "wall_low.corner_reverse.3-2",
}

tile{
  layer = 0,
  x = 240,
  y = 160,
  width = 24,
  height = 24,
  pattern = "wall_low.corner_reverse.4-2",
}

tile{
  layer = 0,
  x = 224,
  y = 176,
  width = 24,
  height = 24,
  pattern = "wall_low.corner_reverse.4-2",
}

tile{
  layer = 0,
  x = 112,
  y = 152,
  width = 16,
  height = 8,
  pattern = "water_shallow.2",
}

tile{
  layer = 0,
  x = 192,
  y = 152,
  width = 16,
  height = 8,
  pattern = "water_shallow.2",
}

tile{
  layer = 0,
  x = 136,
  y = 168,
  width = 48,
  height = 8,
  pattern = "water_shallow.2",
}

tile{
  layer = 0,
  x = 112,
  y = 104,
  width = 96,
  height = 48,
  pattern = "water_shallow",
}

tile{
  layer = 0,
  x = 136,
  y = 152,
  width = 48,
  height = 16,
  pattern = "water_shallow",
}

tile{
  layer = 0,
  x = 104,
  y = 152,
  width = 8,
  height = 8,
  pattern = "water_shallow.corner.3",
}

tile{
  layer = 0,
  x = 128,
  y = 168,
  width = 8,
  height = 8,
  pattern = "water_shallow.corner.3",
}

tile{
  layer = 0,
  x = 184,
  y = 168,
  width = 8,
  height = 8,
  pattern = "water_shallow.corner.4",
}

tile{
  layer = 0,
  x = 208,
  y = 152,
  width = 8,
  height = 8,
  pattern = "water_shallow.corner.4",
}

tile{
  layer = 0,
  x = 104,
  y = 96,
  width = 8,
  height = 8,
  pattern = "water_shallow.corner.1",
}

tile{
  layer = 0,
  x = 208,
  y = 96,
  width = 8,
  height = 8,
  pattern = "water_shallow.corner.2",
}

tile{
  layer = 0,
  x = 104,
  y = 104,
  width = 8,
  height = 48,
  pattern = "water_shallow.3",
}

tile{
  layer = 0,
  x = 128,
  y = 160,
  width = 8,
  height = 8,
  pattern = "water_shallow.3",
}

tile{
  layer = 0,
  x = 184,
  y = 160,
  width = 8,
  height = 8,
  pattern = "water_shallow.4",
}

tile{
  layer = 0,
  x = 208,
  y = 104,
  width = 8,
  height = 48,
  pattern = "water_shallow.4",
}

tile{
  layer = 0,
  x = 128,
  y = 152,
  width = 8,
  height = 8,
  pattern = "water_shallow.corner_reverse.3",
}

tile{
  layer = 0,
  x = 184,
  y = 152,
  width = 8,
  height = 8,
  pattern = "water_shallow.corner_reverse.4",
}

tile{
  layer = 0,
  x = 160,
  y = 96,
  width = 8,
  height = 8,
  pattern = "stairs_inner_up.1.top.border.1-2",
}

tile{
  layer = 0,
  x = 184,
  y = 96,
  width = 8,
  height = 8,
  pattern = "stairs_inner_up.1.top.border.2-2",
}

tile{
  layer = 0,
  x = 184,
  y = 104,
  width = 8,
  height = 24,
  pattern = "stairs_inner_up.1.border.2-2",
}

tile{
  layer = 0,
  x = 160,
  y = 104,
  width = 8,
  height = 24,
  pattern = "stairs_inner_up.1.border.1-2",
}

tile{
  layer = 0,
  x = 168,
  y = 104,
  width = 16,
  height = 24,
  pattern = "stairs_inner_up.1-2",
}

tile{
  layer = 0,
  x = 168,
  y = 96,
  width = 16,
  height = 8,
  pattern = "stairs_inner_up.1.top-2",
}

destination{
  name = "village_cave_1_B",
  layer = 0,
  x = 176,
  y = 149,
  direction = -1,
}

pickable{
  name = "piece_of_heart_1",
  layer = 0,
  x = 144,
  y = 141,
  treasure_name = "piece_of_heart",
  treasure_savegame_variable = "piece_of_heart_1",
}

wall{
  layer = 0,
  x = 160,
  y = 96,
  width = 32,
  height = 8,
  stops_hero = true,
  stops_npcs = true,
  stops_enemies = true,
  stops_blocks = true,
}

teletransporter{
  name = "village_cave_2_B",
  layer = 0,
  x = 168,
  y = 112,
  width = 16,
  height = 16,
  destination_map = "out/a3_mabe_village",
  destination = "village_cave_2_A",
}

stairs{
  layer = 0,
  x = 168,
  y = 112,
  direction = 1,
  subtype = 2,
}

custom_entity{
  name = "cave_rock_1",
  layer = 0,
  x = 88,
  y = 133,
  width = 16,
  height = 16,
  direction = 0,
  sprite = "entities/cave_rock",
}

custom_entity{
  name = "cave_rock_2",
  layer = 0,
  x = 208,
  y = 181,
  width = 16,
  height = 16,
  direction = 0,
  sprite = "entities/cave_rock",
}

custom_entity{
  name = "cave_bones_1",
  layer = 0,
  x = 152,
  y = 93,
  width = 16,
  height = 16,
  direction = 0,
  sprite = "entities/cave_bones",
}

custom_entity{
  name = "cave_bones_2",
  layer = 0,
  x = 224,
  y = 165,
  width = 16,
  height = 16,
  direction = 0,
  sprite = "entities/cave_bones",
}

tile{
  layer = 1,
  x = 16,
  y = 48,
  width = 32,
  height = 16,
  pattern = "ceiling.2",
}

tile{
  layer = 1,
  x = 32,
  y = 32,
  width = 32,
  height = 16,
  pattern = "ceiling.2",
}

tile{
  layer = 1,
  x = 16,
  y = 192,
  width = 32,
  height = 16,
  pattern = "ceiling.2",
}

tile{
  layer = 1,
  x = 32,
  y = 208,
  width = 32,
  height = 16,
  pattern = "ceiling.2",
}

tile{
  layer = 1,
  x = 256,
  y = 32,
  width = 32,
  height = 16,
  pattern = "ceiling.2",
}

tile{
  layer = 1,
  x = 272,
  y = 48,
  width = 32,
  height = 16,
  pattern = "ceiling.2",
}

tile{
  layer = 1,
  x = 272,
  y = 192,
  width = 32,
  height = 16,
  pattern = "ceiling.2",
}

tile{
  layer = 1,
  x = 256,
  y = 208,
  width = 32,
  height = 16,
  pattern = "ceiling.2",
}

tile{
  layer = 1,
  x = 48,
  y = 16,
  width = 224,
  height = 16,
  pattern = "ceiling.2",
}

tile{
  layer = 1,
  x = 48,
  y = 224,
  width = 224,
  height = 16,
  pattern = "ceiling.2",
}

tile{
  layer = 1,
  x = 16,
  y = 64,
  width = 16,
  height = 128,
  pattern = "ceiling.2",
}

tile{
  layer = 1,
  x = 288,
  y = 64,
  width = 16,
  height = 128,
  pattern = "ceiling.2",
}

tile{
  layer = 1,
  x = 72,
  y = 16,
  width = 176,
  height = 24,
  pattern = "wall.1-3",
}

tile{
  layer = 1,
  x = 16,
  y = 72,
  width = 24,
  height = 112,
  pattern = "wall.3-3",
}

tile{
  layer = 1,
  x = 72,
  y = 216,
  width = 176,
  height = 24,
  pattern = "wall.2-3",
}

tile{
  layer = 1,
  x = 280,
  y = 72,
  width = 24,
  height = 112,
  pattern = "wall.4-3",
}

tile{
  layer = 1,
  x = 48,
  y = 216,
  width = 24,
  height = 24,
  pattern = "wall.corner.3-3",
}

tile{
  layer = 1,
  x = 16,
  y = 184,
  width = 24,
  height = 24,
  pattern = "wall.corner.3-3",
}

tile{
  layer = 1,
  x = 32,
  y = 200,
  width = 24,
  height = 24,
  pattern = "wall.corner.3-3",
}

tile{
  layer = 1,
  x = 32,
  y = 184,
  width = 24,
  height = 24,
  pattern = "wall.corner_reverse.3-3",
}

tile{
  layer = 1,
  x = 48,
  y = 200,
  width = 24,
  height = 24,
  pattern = "wall.corner_reverse.3-3",
}

tile{
  layer = 1,
  x = 16,
  y = 48,
  width = 24,
  height = 24,
  pattern = "wall.corner.1-3",
}

tile{
  layer = 1,
  x = 48,
  y = 16,
  width = 24,
  height = 24,
  pattern = "wall.corner.1-3",
}

tile{
  layer = 1,
  x = 32,
  y = 32,
  width = 24,
  height = 24,
  pattern = "wall.corner.1-3",
}

tile{
  layer = 1,
  x = 32,
  y = 48,
  width = 24,
  height = 24,
  pattern = "wall.corner_reverse.1-3",
}

tile{
  layer = 1,
  x = 48,
  y = 32,
  width = 24,
  height = 24,
  pattern = "wall.corner_reverse.1-3",
}

tile{
  layer = 1,
  x = 248,
  y = 16,
  width = 24,
  height = 24,
  pattern = "wall.corner.2-3",
}

tile{
  layer = 1,
  x = 264,
  y = 32,
  width = 24,
  height = 24,
  pattern = "wall.corner.2-3",
}

tile{
  layer = 1,
  x = 280,
  y = 48,
  width = 24,
  height = 24,
  pattern = "wall.corner.2-3",
}

tile{
  layer = 1,
  x = 280,
  y = 184,
  width = 24,
  height = 24,
  pattern = "wall.corner.4-3",
}

tile{
  layer = 1,
  x = 264,
  y = 200,
  width = 24,
  height = 24,
  pattern = "wall.corner.4-3",
}

tile{
  layer = 1,
  x = 248,
  y = 216,
  width = 24,
  height = 24,
  pattern = "wall.corner.4-3",
}

tile{
  layer = 1,
  x = 248,
  y = 200,
  width = 24,
  height = 24,
  pattern = "wall.corner_reverse.4-3",
}

tile{
  layer = 1,
  x = 264,
  y = 184,
  width = 24,
  height = 24,
  pattern = "wall.corner_reverse.4-3",
}

tile{
  layer = 1,
  x = 248,
  y = 32,
  width = 24,
  height = 24,
  pattern = "wall.corner_reverse.2-3",
}

tile{
  layer = 1,
  x = 264,
  y = 48,
  width = 24,
  height = 24,
  pattern = "wall.corner_reverse.2-3",
}

tile{
  layer = 2,
  x = 0,
  y = 0,
  width = 16,
  height = 256,
  pattern = "ceiling.2",
}

tile{
  layer = 2,
  x = 304,
  y = 0,
  width = 16,
  height = 256,
  pattern = "ceiling.2",
}

tile{
  layer = 2,
  x = 16,
  y = 0,
  width = 288,
  height = 16,
  pattern = "ceiling.2",
}

tile{
  layer = 2,
  x = 16,
  y = 240,
  width = 288,
  height = 16,
  pattern = "ceiling.2",
}

tile{
  layer = 2,
  x = 16,
  y = 16,
  width = 16,
  height = 32,
  pattern = "ceiling.2",
}

tile{
  layer = 2,
  x = 16,
  y = 208,
  width = 16,
  height = 16,
  pattern = "ceiling.2",
}

tile{
  layer = 2,
  x = 288,
  y = 32,
  width = 16,
  height = 16,
  pattern = "ceiling.2",
}

tile{
  layer = 2,
  x = 288,
  y = 208,
  width = 16,
  height = 16,
  pattern = "ceiling.2",
}

tile{
  layer = 2,
  x = 16,
  y = 224,
  width = 32,
  height = 16,
  pattern = "ceiling.2",
}

tile{
  layer = 2,
  x = 32,
  y = 16,
  width = 16,
  height = 16,
  pattern = "ceiling.2",
}

tile{
  layer = 2,
  x = 272,
  y = 16,
  width = 32,
  height = 16,
  pattern = "ceiling.2",
}

tile{
  layer = 2,
  x = 272,
  y = 224,
  width = 32,
  height = 16,
  pattern = "ceiling.2",
}

